infusionsoft_interview
…
# read in data and format columns and response variable
(loan_df <- df %>% 
  as_tibble() %>% 
  filter(loan_status != 'Current') %>% 
  mutate( # combines default and charged off together = at risk customers
    response = ifelse(loan_status %in% c('Charged Off', 'Default'), 'Default','Paid')
    ) %>% 
  mutate_if(is.character, as.factor) %>%          
  select_if( # remove columns with close to  100% NAs
    function(x) {!mean(is.na(x)) > .9})
  )

## # A tibble: 137,035 x 101
##    loan_amnt term      int_rate installment emp_title           emp_length
##        <dbl> <fct>        <dbl>       <dbl> <fct>               <fct>     
##  1     25000 " 36 mon~   0.0749        778. Sales Manager       10+ years 
##  2     23975 " 60 mon~   0.199         634. Principal           10+ years 
##  3     20000 " 36 mon~   0.098         643. Manager             5 years   
##  4     15000 " 60 mon~   0.134         345. Counselor           4 years   
##  5     15000 " 36 mon~   0.0849        473. Senior Associate    6 years   
##  6     12000 " 36 mon~   0.0532        361. Network Operation ~ 4 years   
##  7     10000 " 60 mon~   0.166         246. "Emergency Departm~ < 1 year  
##  8     15000 " 36 mon~   0.098         483. Electronic Branch ~ 3 years   
##  9     21000 " 60 mon~   0.134         483. Teacher             2 years   
## 10     16000 " 60 mon~   0.180         406. Professional Sales~ < 1 year  
## # ... with 137,025 more rows, and 95 more variables: home_ownership <fct>,
## #   annual_inc <dbl>, verification_status <fct>, issue_d <dbl>,
## #   loan_status <fct>, pymnt_plan <fct>, purpose <fct>, title <fct>,
## #   zip_code <fct>, addr_state <fct>, dti <dbl>, delinq_2yrs <dbl>,
## #   earliest_cr_line <dbl>, inq_last_6mths <dbl>,
## #   mths_since_last_delinq <dbl>, mths_since_last_record <dbl>,
## #   open_acc <dbl>, pub_rec <dbl>, revol_bal <dbl>, revol_util <dbl>,
## #   total_acc <dbl>, initial_list_status <fct>, out_prncp <dbl>,
## #   out_prncp_inv <dbl>, total_pymnt <dbl>, total_pymnt_inv <dbl>,
…
dim(loan_df)

## [1] 137035     83

# data frame to be used for exploration - check missing - under 10% ok to impute for modeling
sapply(loan_eda, function(x) mean(is.na(x))) %>% tidy()

## # A tibble: 62 x 2
##    names                   x
##    <chr>               <dbl>
##  1 loan_amnt               0
##  2 term                    0
##  3 int_rate                0
##  4 installment             0
##  5 emp_length              0
##  6 home_ownership          0
##  7 annual_inc              0
##  8 verification_status     0
##  9 issue_d                 0
## 10 purpose                 0
## # ... with 52 more rows
…
